%YAML 1.1
%TAG !u! tag:unity3d.com,2011:
--- !u!74 &7400000
AnimationClip:
  m_ObjectHideFlags: 0
  m_PrefabParentObject: {fileID: 0}
  m_PrefabInternal: {fileID: 0}
  m_Name: TakeOff
  serializedVersion: 6
  m_Legacy: 0
  m_Compressed: 0
  m_UseHighQualityCurve: 1
  m_RotationCurves: []
  m_CompressedRotationCurves: []
  m_EulerCurves: []
  m_PositionCurves: []
  m_ScaleCurves: []
  m_FloatCurves: []
  m_PPtrCurves:
  - curve:
    - time: 0
      value: {fileID: 21300000, guid: 9132e8eb7707922479c7afb0aeae6222, type: 3}
    - time: 0.083333336
      value: {fileID: 21300000, guid: 5be6da3e31089b84396d0056d1870c73, type: 3}
    - time: 0.16666667
      value: {fileID: 21300000, guid: eb7e43ac217c6ec428665c9784ff4104, type: 3}
    - time: 0.25
      value: {fileID: 21300000, guid: 11a0e672e5e0b074bb5014c1e49d3ee4, type: 3}
    - time: 0.33333334
      value: {fileID: 21300000, guid: 231cc67dc6060a8488203df6a0853a9a, type: 3}
    - time: 0.41666666
      value: {fileID: 21300000, guid: db4a2edad209bc843b8fbfcd796b46c2, type: 3}
    - time: 0.5
      value: {fileID: 21300000, guid: 2230d3f2f2ccc4c48873d2beb66585c1, type: 3}
    attribute: m_Sprite
    path: 
    classID: 212
    script: {fileID: 0}
  m_SampleRate: 12
  m_WrapMode: 0
  m_Bounds:
    m_Center: {x: 0, y: 0, z: 0}
    m_Extent: {x: 0, y: 0, z: 0}
  m_ClipBindingConstant:
    genericBindings:
    - serializedVersion: 2
      path: 0
      attribute: 0
      script: {fileID: 0}
      typeID: 212
      customType: 23
      isPPtrCurve: 1
    pptrCurveMapping:
    - {fileID: 21300000, guid: 9132e8eb7707922479c7afb0aeae6222, type: 3}
    - {fileID: 21300000, guid: 5be6da3e31089b84396d0056d1870c73, type: 3}
    - {fileID: 21300000, guid: eb7e43ac217c6ec428665c9784ff4104, type: 3}
    - {fileID: 21300000, guid: 11a0e672e5e0b074bb5014c1e49d3ee4, type: 3}
    - {fileID: 21300000, guid: 231cc67dc6060a8488203df6a0853a9a, type: 3}
    - {fileID: 21300000, guid: db4a2edad209bc843b8fbfcd796b46c2, type: 3}
    - {fileID: 21300000, guid: 2230d3f2f2ccc4c48873d2beb66585c1, type: 3}
  m_AnimationClipSettings:
    serializedVersion: 2
    m_AdditiveReferencePoseClip: {fileID: 0}
    m_AdditiveReferencePoseTime: 0
    m_StartTime: 0
    m_StopTime: 0.5833333
    m_OrientationOffsetY: 0
    m_Level: 0
    m_CycleOffset: 0
    m_HasAdditiveReferencePose: 0
    m_LoopTime: 0
    m_LoopBlend: 0
    m_LoopBlendOrientation: 0
    m_LoopBlendPositionY: 0
    m_LoopBlendPositionXZ: 0
    m_KeepOriginalOrientation: 0
    m_KeepOriginalPositionY: 1
    m_KeepOriginalPositionXZ: 0
    m_HeightFromFeet: 0
    m_Mirror: 0
  m_EditorCurves: []
  m_EulerEditorCurves: []
  m_HasGenericRootTransform: 0
  m_HasMotionFloatCurves: 0
  m_GenerateMotionCurves: 0
  m_Events: []
